\relax 
\providecommand \oddpage@label [2]{}
\@input{section/dedication.aux}
\@input{section/acknowlegements.aux}
\@input{section/abstrak.aux}
\@input{section/abstract.aux}
\@input{section/chapter1.aux}
\@input{section/chapter2.aux}
\@input{section/chapter3.aux}
\@input{section/chapter4.aux}
\@input{section/chapter5.aux}
\@input{section/chapter6.aux}
\@input{section/chapter7.aux}
\bibdata{references}
\bibcite{perdana2018pengembangan}{1}
\bibcite{devadiga2017software}{2}
\bibcite{paternoster2014software}{3}
\bibcite{suryotrisongko2017arsitektur}{4}
\bibcite{sendiang2018implementasi}{5}
\bibcite{hermawanpeningkatan}{6}
\bibcite{brawijaya2018pengujian}{7}
\bibcite{maulana2017software}{8}
\bibcite{samudi2018penerapan}{9}
\@writefile{toc}{\contentsline {chapter}{Daftar Pustaka}{43}\protected@file@percent }
\bibcite{godbolt2016frontend}{10}
\bibcite{pis0809_2015}{11}
\bibcite{van2016web}{12}
\bibcite{khanapurkar2014system}{13}
\bibcite{haryati2012research}{14}
\bibcite{pressman2012rekayasa}{15}
\bibcite{mulyani2017metode}{16}
\bibcite{ghani2013role}{17}
\bibcite{dalalah2014extreme}{18}
\bibcite{akpolat2014enhancing}{19}
\bibcite{vos2013evolutionary}{20}
\bibcite{kaur2016empirical}{21}
\bibcite{jati2018quality}{22}
\bibstyle{IEEEtran}
